 [
  {
  "id": 1,
  "imageUrl": "http://www.hm.com/entrance/entrance-assets/static/site/img/choosecountry/HM-Share-Image.jpg",
  "name": "H&M"
  },
  {
  "id": 2,
  "imageUrl": "http://www.sostav.ru/app/public/images/news/2013/12/18/Tommy-Hilfiger-Logo.jpg?rand=0.7319487843196839",
  "name": "Tommy Helfiger"
  },
  {
  "id": 3,
  "imageUrl": "https://laparfumerie.ru/catalog/2013/08/06/23848_226354.jpg",
  "name": "Calvin Klein"
  },
  {
  "id": 4,
  "imageUrl": "https://upload.wikimedia.org/wikipedia/commons/thumb/7/75/Levi%27s_logo.svg/1200px-Levi%27s_logo.svg.png",
  "name": "Levis"
  },
  {
  "id": 5,
  "imageUrl": "http://almaz.center/upload/iblock/854/85402495971d93bc0f0a9044652eba54.jpg",
  "name": "Pull&Bear"
  },
  {
  "id": 6,
  "imageUrl": "https://i.pinimg.com/736x/97/8c/32/978c322d636111686245c36a0abe47c8--marks--spencer-logo-google.jpg",
  "name": "Mark Spenser"
  }
]
